…
    ## file path:          /Users/s/Library/Caches/rnoaa/ghcnd/USS0023B17S.dly

    ## file last updated:  2018-09-26 23:32:12

    ## file min/max dates: 1999-09-01 / 2018-09-30

`group_by`

``` r
weather_df %>%
  group_by(name, month) 
```

    ## # A tibble: 1,098 x 7
    ## # Groups:   name, month [36]
    ##    name           id          date       month       prcp  tmax  tmin
    ##    <chr>          <chr>       <date>     <date>     <dbl> <dbl> <dbl>
    ##  1 CentralPark_NY USW00094728 2016-01-01 2016-01-01     0   5.6   1.1
    ##  2 CentralPark_NY USW00094728 2016-01-02 2016-01-01     0   4.4   0  
    ##  3 CentralPark_NY USW00094728 2016-01-03 2016-01-01     0   7.2   1.7
    ##  4 CentralPark_NY USW00094728 2016-01-04 2016-01-01     0   2.2  -9.9
    ##  5 CentralPark_NY USW00094728 2016-01-05 2016-01-01     0  -1.6 -11.6
    ##  6 CentralPark_NY USW00094728 2016-01-06 2016-01-01     0   5    -3.8
    ##  7 CentralPark_NY USW00094728 2016-01-07 2016-01-01     0   7.8  -0.5
    ##  8 CentralPark_NY USW00094728 2016-01-08 2016-01-01     0   7.8  -0.5
    ##  9 CentralPark_NY USW00094728 2016-01-09 2016-01-01     0   8.3   4.4
    ## 10 CentralPark_NY USW00094728 2016-01-10 2016-01-01   457  15     4.4
    ## # ... with 1,088 more rows
…
